%YAML 1.1
%TAG !u! tag:unity3d.com,2011:
--- !u!114 &11400000
MonoBehaviour:
  m_ObjectHideFlags: 0
  m_CorrespondingSourceObject: {fileID: 0}
  m_PrefabInstance: {fileID: 0}
  m_PrefabAsset: {fileID: 0}
  m_GameObject: {fileID: 0}
  m_Enabled: 1
  m_EditorHideFlags: 0
  m_Script: {fileID: 11500000, guid: 349a67a57facd9c45afb7431673e72eb, type: 3}
  m_Name: Water
  m_EditorClassIdentifier: 
  typeOfLine: 2
  tile: {fileID: 7621305799152871132, guid: 517d23d06aeedd546a6eecd1552582fa, type: 3}
  barriers:
  - {fileID: 436790451658153970, guid: 5b1ec037fd177994a89b17581de23692, type: 3}
  numberOfBarriers: 20
  minInSuccession: 2
  maxInSuccession: 4
