%YAML 1.1
%TAG !u! tag:unity3d.com,2011:
--- !u!1 &8437388531650761007
GameObject:
  m_ObjectHideFlags: 0
  m_CorrespondingSourceObject: {fileID: 0}
  m_PrefabInstance: {fileID: 0}
  m_PrefabAsset: {fileID: 0}
  serializedVersion: 6
  m_Component:
  - component: {fileID: 2814821000442458533}
  - component: {fileID: 6045050150718743903}
  - component: {fileID: 2380285537935744220}
  m_Layer: 0
  m_Name: Car1
  m_TagString: Car
  m_Icon: {fileID: 0}
  m_NavMeshLayer: 0
  m_StaticEditorFlags: 0
  m_IsActive: 1
--- !u!4 &2814821000442458533
Transform:
  m_ObjectHideFlags: 0
  m_CorrespondingSourceObject: {fileID: 0}
  m_PrefabInstance: {fileID: 0}
  m_PrefabAsset: {fileID: 0}
  m_GameObject: {fileID: 8437388531650761007}
  m_LocalRotation: {x: 0, y: 0, z: 0, w: 1}
  m_LocalPosition: {x: 0, y: 0, z: 0}
  m_LocalScale: {x: 1, y: 1, z: 1}
  m_Children:
  - {fileID: 2705912854048438183}
  m_Father: {fileID: 0}
  m_RootOrder: 0
  m_LocalEulerAnglesHint: {x: 0, y: 0, z: 0}
--- !u!114 &6045050150718743903
MonoBehaviour:
  m_ObjectHideFlags: 0
  m_CorrespondingSourceObject: {fileID: 0}
  m_PrefabInstance: {fileID: 0}
  m_PrefabAsset: {fileID: 0}
  m_GameObject: {fileID: 8437388531650761007}
  m_Enabled: 1
  m_EditorHideFlags: 0
  m_Script: {fileID: 11500000, guid: df900d571263fdb4289c76f914e2eab7, type: 3}
  m_Name: 
  m_EditorClassIdentifier: 
  startPosition: {x: 0, y: 0, z: 0}
  finishPosition: {x: 0, y: 0, z: 0}
--- !u!65 &2380285537935744220
BoxCollider:
  m_ObjectHideFlags: 0
  m_CorrespondingSourceObject: {fileID: 0}
  m_PrefabInstance: {fileID: 0}
  m_PrefabAsset: {fileID: 0}
  m_GameObject: {fileID: 8437388531650761007}
  m_Material: {fileID: 0}
  m_IsTrigger: 0
  m_Enabled: 1
  serializedVersion: 2
  m_Size: {x: 0.58, y: 1, z: 2.17}
  m_Center: {x: 0, y: 0.28, z: 0}
--- !u!1001 &2705912854048803669
PrefabInstance:
  m_ObjectHideFlags: 0
  serializedVersion: 2
  m_Modification:
    m_TransformParent: {fileID: 2814821000442458533}
    m_Modifications:
    - target: {fileID: 115480, guid: ee7346801234a4040acd907c2ffd4a0d, type: 3}
      propertyPath: m_Name
      value: CompactGrey
      objectReference: {fileID: 0}
    - target: {fileID: 425202, guid: ee7346801234a4040acd907c2ffd4a0d, type: 3}
      propertyPath: m_LocalPosition.x
      value: 0
      objectReference: {fileID: 0}
    - target: {fileID: 425202, guid: ee7346801234a4040acd907c2ffd4a0d, type: 3}
      propertyPath: m_LocalPosition.y
      value: 0
      objectReference: {fileID: 0}
    - target: {fileID: 425202, guid: ee7346801234a4040acd907c2ffd4a0d, type: 3}
      propertyPath: m_LocalPosition.z
      value: 0
      objectReference: {fileID: 0}
    - target: {fileID: 425202, guid: ee7346801234a4040acd907c2ffd4a0d, type: 3}
      propertyPath: m_LocalRotation.x
      value: -0
      objectReference: {fileID: 0}
    - target: {fileID: 425202, guid: ee7346801234a4040acd907c2ffd4a0d, type: 3}
      propertyPath: m_LocalRotation.y
      value: 0.71111274
      objectReference: {fileID: 0}
    - target: {fileID: 425202, guid: ee7346801234a4040acd907c2ffd4a0d, type: 3}
      propertyPath: m_LocalRotation.z
      value: -0
      objectReference: {fileID: 0}
    - target: {fileID: 425202, guid: ee7346801234a4040acd907c2ffd4a0d, type: 3}
      propertyPath: m_LocalRotation.w
      value: 0.7030781
      objectReference: {fileID: 0}
    - target: {fileID: 425202, guid: ee7346801234a4040acd907c2ffd4a0d, type: 3}
      propertyPath: m_RootOrder
      value: 0
      objectReference: {fileID: 0}
    - target: {fileID: 425202, guid: ee7346801234a4040acd907c2ffd4a0d, type: 3}
      propertyPath: m_LocalEulerAnglesHint.x
      value: 0
      objectReference: {fileID: 0}
    - target: {fileID: 425202, guid: ee7346801234a4040acd907c2ffd4a0d, type: 3}
      propertyPath: m_LocalEulerAnglesHint.y
      value: 90.651
      objectReference: {fileID: 0}
    - target: {fileID: 425202, guid: ee7346801234a4040acd907c2ffd4a0d, type: 3}
      propertyPath: m_LocalEulerAnglesHint.z
      value: 0
      objectReference: {fileID: 0}
    - target: {fileID: 425202, guid: ee7346801234a4040acd907c2ffd4a0d, type: 3}
      propertyPath: m_LocalScale.x
      value: 0.45000023
      objectReference: {fileID: 0}
    - target: {fileID: 425202, guid: ee7346801234a4040acd907c2ffd4a0d, type: 3}
      propertyPath: m_LocalScale.y
      value: 0.45
      objectReference: {fileID: 0}
    - target: {fileID: 425202, guid: ee7346801234a4040acd907c2ffd4a0d, type: 3}
      propertyPath: m_LocalScale.z
      value: 0.45000023
      objectReference: {fileID: 0}
    m_RemovedComponents: []
  m_SourcePrefab: {fileID: 100100000, guid: ee7346801234a4040acd907c2ffd4a0d, type: 3}
--- !u!4 &2705912854048438183 stripped
Transform:
  m_CorrespondingSourceObject: {fileID: 425202, guid: ee7346801234a4040acd907c2ffd4a0d,
    type: 3}
  m_PrefabInstance: {fileID: 2705912854048803669}
  m_PrefabAsset: {fileID: 0}
