%YAML 1.1
%TAG !u! tag:unity3d.com,2011:
--- !u!1 &765530681264441096
GameObject:
  m_ObjectHideFlags: 0
  m_CorrespondingSourceObject: {fileID: 0}
  m_PrefabInstance: {fileID: 0}
  m_PrefabAsset: {fileID: 0}
  serializedVersion: 6
  m_Component:
  - component: {fileID: 1138988298855524349}
  - component: {fileID: -938191103283381476}
  - component: {fileID: 9084121549289517595}
  m_Layer: 0
  m_Name: Car2
  m_TagString: Car
  m_Icon: {fileID: 0}
  m_NavMeshLayer: 0
  m_StaticEditorFlags: 0
  m_IsActive: 1
--- !u!4 &1138988298855524349
Transform:
  m_ObjectHideFlags: 0
  m_CorrespondingSourceObject: {fileID: 0}
  m_PrefabInstance: {fileID: 0}
  m_PrefabAsset: {fileID: 0}
  m_GameObject: {fileID: 765530681264441096}
  m_LocalRotation: {x: 0, y: 0, z: 0, w: 1}
  m_LocalPosition: {x: 0, y: 0, z: 0}
  m_LocalScale: {x: 1, y: 1, z: 1}
  m_Children:
  - {fileID: 8664821881220890779}
  m_Father: {fileID: 0}
  m_RootOrder: 0
  m_LocalEulerAnglesHint: {x: 0, y: 0, z: 0}
--- !u!114 &-938191103283381476
MonoBehaviour:
  m_ObjectHideFlags: 0
  m_CorrespondingSourceObject: {fileID: 0}
  m_PrefabInstance: {fileID: 0}
  m_PrefabAsset: {fileID: 0}
  m_GameObject: {fileID: 765530681264441096}
  m_Enabled: 1
  m_EditorHideFlags: 0
  m_Script: {fileID: 11500000, guid: df900d571263fdb4289c76f914e2eab7, type: 3}
  m_Name: 
  m_EditorClassIdentifier: 
  startPosition: {x: 0, y: 0, z: 0}
  finishPosition: {x: 0, y: 0, z: 0}
--- !u!65 &9084121549289517595
BoxCollider:
  m_ObjectHideFlags: 0
  m_CorrespondingSourceObject: {fileID: 0}
  m_PrefabInstance: {fileID: 0}
  m_PrefabAsset: {fileID: 0}
  m_GameObject: {fileID: 765530681264441096}
  m_Material: {fileID: 0}
  m_IsTrigger: 0
  m_Enabled: 1
  serializedVersion: 2
  m_Size: {x: 0.5, y: 1.44, z: 2.8}
  m_Center: {x: 0, y: 0.51, z: 0}
--- !u!1001 &8660866743232224371
PrefabInstance:
  m_ObjectHideFlags: 0
  serializedVersion: 2
  m_Modification:
    m_TransformParent: {fileID: 1138988298855524349}
    m_Modifications:
    - target: {fileID: 1000010332137992, guid: ad1afbbaa7ce3624f90f994e90e52ed3, type: 3}
      propertyPath: m_Name
      value: TruckOrange
      objectReference: {fileID: 0}
    - target: {fileID: 4000013326605544, guid: ad1afbbaa7ce3624f90f994e90e52ed3, type: 3}
      propertyPath: m_LocalPosition.x
      value: 0
      objectReference: {fileID: 0}
    - target: {fileID: 4000013326605544, guid: ad1afbbaa7ce3624f90f994e90e52ed3, type: 3}
      propertyPath: m_LocalPosition.y
      value: 0
      objectReference: {fileID: 0}
    - target: {fileID: 4000013326605544, guid: ad1afbbaa7ce3624f90f994e90e52ed3, type: 3}
      propertyPath: m_LocalPosition.z
      value: 0
      objectReference: {fileID: 0}
    - target: {fileID: 4000013326605544, guid: ad1afbbaa7ce3624f90f994e90e52ed3, type: 3}
      propertyPath: m_LocalRotation.x
      value: -0
      objectReference: {fileID: 0}
    - target: {fileID: 4000013326605544, guid: ad1afbbaa7ce3624f90f994e90e52ed3, type: 3}
      propertyPath: m_LocalRotation.y
      value: 0.71111274
      objectReference: {fileID: 0}
    - target: {fileID: 4000013326605544, guid: ad1afbbaa7ce3624f90f994e90e52ed3, type: 3}
      propertyPath: m_LocalRotation.z
      value: -0
      objectReference: {fileID: 0}
    - target: {fileID: 4000013326605544, guid: ad1afbbaa7ce3624f90f994e90e52ed3, type: 3}
      propertyPath: m_LocalRotation.w
      value: 0.7030781
      objectReference: {fileID: 0}
    - target: {fileID: 4000013326605544, guid: ad1afbbaa7ce3624f90f994e90e52ed3, type: 3}
      propertyPath: m_RootOrder
      value: 0
      objectReference: {fileID: 0}
    - target: {fileID: 4000013326605544, guid: ad1afbbaa7ce3624f90f994e90e52ed3, type: 3}
      propertyPath: m_LocalEulerAnglesHint.x
      value: 0
      objectReference: {fileID: 0}
    - target: {fileID: 4000013326605544, guid: ad1afbbaa7ce3624f90f994e90e52ed3, type: 3}
      propertyPath: m_LocalEulerAnglesHint.y
      value: 90.651
      objectReference: {fileID: 0}
    - target: {fileID: 4000013326605544, guid: ad1afbbaa7ce3624f90f994e90e52ed3, type: 3}
      propertyPath: m_LocalEulerAnglesHint.z
      value: 0
      objectReference: {fileID: 0}
    - target: {fileID: 4000013326605544, guid: ad1afbbaa7ce3624f90f994e90e52ed3, type: 3}
      propertyPath: m_LocalScale.x
      value: 0.45000023
      objectReference: {fileID: 0}
    - target: {fileID: 4000013326605544, guid: ad1afbbaa7ce3624f90f994e90e52ed3, type: 3}
      propertyPath: m_LocalScale.y
      value: 0.45
      objectReference: {fileID: 0}
    - target: {fileID: 4000013326605544, guid: ad1afbbaa7ce3624f90f994e90e52ed3, type: 3}
      propertyPath: m_LocalScale.z
      value: 0.45000023
      objectReference: {fileID: 0}
    m_RemovedComponents: []
  m_SourcePrefab: {fileID: 100100000, guid: ad1afbbaa7ce3624f90f994e90e52ed3, type: 3}
--- !u!4 &8664821881220890779 stripped
Transform:
  m_CorrespondingSourceObject: {fileID: 4000013326605544, guid: ad1afbbaa7ce3624f90f994e90e52ed3,
    type: 3}
  m_PrefabInstance: {fileID: 8660866743232224371}
  m_PrefabAsset: {fileID: 0}
